{
    "name": "ETSII",
    "address": "ETSII",
    "polygon": {
        "coordinates": [
          [
            [
              -5.986574432136933,
              37.35855628589884
            ],
            [
              -5.9875391020363224,
              37.35858252375823
            ],
            [
              -5.987531162140499,
              37.35873945490488
            ],
            [
              -5.987579746484585,
              37.3587413234864
            ],
            [
              -5.98757817924772,
              37.3587849237104
            ],
            [
              -5.9883163478250765,
              37.35880672381262
            ],
            [
              -5.988321049535557,
              37.35872201480788
            ],
            [
              -5.988422136315137,
              37.35872575197176
            ],
            [
              -5.988422919933555,
              37.35868900318455
            ],
            [
              -5.988322616772422,
              37.35868339743537
            ],
            [
              -5.9883234003908115,
              37.35860180259978
            ],
            [
              -5.987585231813512,
              37.35858000243806
            ],
            [
              -5.987589149905602,
              37.35847411584693
            ],
            [
              -5.98833202019415,
              37.35849280172667
            ],
            [
              -5.988337505523049,
              37.35840871523034
            ],
            [
              -5.988437808684182,
              37.358413698136815
            ],
            [
              -5.988440159539465,
              37.35837321201501
            ],
            [
              -5.988337505523049,
              37.358371343424324
            ],
            [
              -5.98833985637836,
              37.358285388199064
            ],
            [
              -5.987602471419422,
              37.35826358794543
            ],
            [
              -5.987607173129959,
              37.35815770090788
            ],
            [
              -5.988344558088812,
              37.35817825546194
            ],
            [
              -5.988346937549835,
              37.35809223280019
            ],
            [
              -5.988451942421449,
              37.35809659286129
            ],
            [
              -5.988451942421449,
              37.358057975167554
            ],
            [
              -5.988350072023479,
              37.35805486083662
            ],
            [
              -5.9883516392603156,
              37.35797264245028
            ],
            [
              -5.98761582153827,
              37.357949596371654
            ],
            [
              -5.987621306867197,
              37.357839348815375
            ],
            [
              -5.988357908207661,
              37.357860526324444
            ],
            [
              -5.98836260632649,
              37.35778017670334
            ],
            [
              -5.988465260342849,
              37.357782045308724
            ],
            [
              -5.988467611198814,
              37.35774093597797
            ],
            [
              -5.988364173563298,
              37.35773906737097
            ],
            [
              -5.988367308036999,
              37.3576537342917
            ],
            [
              -5.987631490314925,
              37.35763380246371
            ],
            [
              -5.987635408407016,
              37.35754224055992
            ],
            [
              -5.98707650506168,
              37.357528713022134
            ],
            [
              -5.987074937824815,
              37.357595360145
            ],
            [
              -5.986955827820935,
              37.35759037718478
            ],
            [
              -5.9869487752544615,
              37.35776166625956
            ],
            [
              -5.986708988009838,
              37.357755437572465
            ],
            [
              -5.986697233732855,
              37.358002716041156
            ],
            [
              -5.986992657888067,
              37.35801205903999
            ],
            [
              -5.986982555399777,
              37.358134499438194
            ],
            [
              -5.986908111647892,
              37.358133876572666
            ],
            [
              -5.9869034099366445,
              37.35826716968505
            ],
            [
              -5.986982555399777,
              37.35827090687158
            ],
            [
              -5.986972370189903,
              37.35844157144284
            ],
            [
              -5.986578210111134,
              37.35842911418149
            ],
            [
              -5.986574432136933,
              37.35855628589884
            ]
          ]
        ],
        "type": "Polygon"
      }
}